…
    Collections are identifed with unique `key`s. If any of the
    collections would be nested within some other collection, the key of
    the parent collection would appear in the column `parent`.

-   Fetch all items from a collection. By default the data is returned
    as a tibble:

    ``` r
    items(collection_key = "PJHH85S9", user = zotero_group_id(269768))
    #> # A tibble: 52 × 40
    #>    key      version parentItem itemType   linkMode title accessDate url   note  contentType charset filename
    #>    <chr>      <int> <chr>      <chr>      <chr>    <chr> <chr>      <chr> <chr> <chr>       <chr>   <chr>   
    #>  1 4DMJB285    2469 ZAIHXBUJ   attachment importe… Snap… "2017-10-… "htt… ""    text/html   "utf-8" abstrac…
    #>  2 ZAIHXBUJ    2465 <NA>       journalAr… <NA>     Usin… ""         "htt…  <NA> <NA>         <NA>   <NA>    
    #>  3 II488T8Q     812 ZAIHXBUJ   attachment importe… Snap… "2017-11-… "htt… ""    text/html   "utf-8" login.h…
    #>  4 93T74CKJ     788 QT3DFJP3   attachment importe… choi… ""         ""    ""    applicatio… ""      choi200…
    #>  5 X24M4ADA     788 QT3DFJP3   attachment importe… Snap… "2017-10-… "htt… ""    text/html   "utf-8" 636.html
    #>  6 T2GB9HBV     787 QT3DFJP3   attachment linked_… PubM… "2017-10-… "htt… ""    text/html   ""      <NA>    
    #>  7 QT3DFJP3     787 <NA>       journalAr… <NA>     The … "2017-10-… "htt…  <NA> <NA>         <NA>   <NA>    
    #>  8 MWJTRJN2     786 ZW56BMF9   attachment importe… natu… ""         ""    ""    applicatio… ""      nature0…
    #>  9 WSF3JX8A     786 ZW56BMF9   attachment importe… Snap… "2017-10-… "htt… ""    text/html   "utf-8" login.h…
    #> 10 XBA75WN3     784 EA5JE6JX   attachment importe… Snap… "2017-10-… "htt… ""    text/html   "utf-8" abstrac…
    #> # … with 42 more rows, and 28 more variables: md5 <chr>, mtime <dbl>, dateAdded <chr>, dateModified <chr>,
    #> #   creators <list>, abstractNote <chr>, publicationTitle <chr>, volume <chr>, issue <chr>, pages <chr>,
    #> #   date <chr>, series <chr>, seriesTitle <chr>, seriesText <chr>, journalAbbreviation <chr>,
    #> #   language <chr>, DOI <chr>, ISSN <chr>, shortTitle <chr>, archive <chr>, archiveLocation <chr>,
    #> #   libraryCatalog <chr>, callNumber <chr>, rights <chr>, extra <chr>, collections <list>,
    #> #   relations <named list>, tags <list>
    ```
…
